<?xml version="1.0" encoding="UTF-8"?>
<session version="1.0">
<refactoring accessors="true" comment="Delete element from project &apos;GeoQuiz&apos;&#x0A;- Original project: &apos;GeoQuiz&apos;&#x0A;- Original element: &apos;fragment_quiz.xml&apos;" description="Delete element" element1="res/layout/fragment_quiz.xml" elements="0" flags="589830" id="org.eclipse.jdt.ui.delete" resources="1" stamp="1406644647631" subPackages="false" version="1.0"/>
</session>